<svg xmlns="http://www.w3.org/2000/svg" width="24" height="22" viewBox="0 0 24 22">
  <metadata><?xpacket begin="﻿" id="W5M0MpCehiHzreSzNTczkc9d"?>
<x:xmpmeta xmlns:x="adobe:ns:meta/" x:xmptk="Adobe XMP Core 5.6-c140 79.160451, 2017/05/06-01:08:21        ">
   <rdf:RDF xmlns:rdf="http://www.w3.org/1999/02/22-rdf-syntax-ns#">
      <rdf:Description rdf:about=""/>
   </rdf:RDF>
</x:xmpmeta>
                                                                                                    
                                                                                                    
                                                                                                    
                                                                                                    
                                                                                                    
                                                                                                    
                                                                                                    
                                                                                                    
                                                                                                    
                                                                                                    
                                                                                                    
                                                                                                    
                                                                                                    
                                                                                                    
                                                                                                    
                                                                                                    
                                                                                                    
                                                                                                    
                                                                                                    
                                                                                                    
                           
<?xpacket end="w"?></metadata>
<defs>
    <style>
      .cls-1 {
        fill: #f35858;
        fill-rule: evenodd;
      }
    </style>
  </defs>
  <path id="Forma_1_копия_9" data-name="Forma 1 копия 9" class="cls-1" d="M2567,6121.25a1.24,1.24,0,0,0-1.23-1.25l-10.77,4.69-10.77-4.69a1.24,1.24,0,0,0-1.23,1.25l11.08,20.33a1.256,1.256,0,0,0,1.84,0C2556.85,6140.64,2567,6121.25,2567,6121.25Z" transform="translate(-2543 -6120)"/>
</svg>
